…
### using anti_join to check

``` r
anti_join(bakers_df, bakeoff_combined_df, by = "name_series") 
```

    ## # A tibble: 26 × 7
    ##    baker  last_name       series baker_age baker_occupation hometown name_series
    ##    <chr>  <chr>            <dbl>     <dbl> <chr>            <chr>    <chr>      
    ##  1 Alice  Fevronia            10        28 Geography teach… Essex    Alice_10   
    ##  2 Amelia LeBruin             10        24 Fashion designer Halifax  Amelia_10  
    ##  3 Antony Amourdoux            9        30 Banker           London   Antony_9   
    ##  4 Briony Williams             9        33 Full-time parent Bristol  Briony_9   
    ##  5 Dan    Beasley-Harling      9        36 Full-time parent London   Dan_9      
    ##  6 Dan    Chambers            10        32 Support worker   Rotherh… Dan_10     
    ##  7 David  Atherton            10        36 International h… Whitby   David_10   
    ##  8 Helena Garcia              10        40 Online project … Leeds    Helena_10  
    ##  9 Henry  Bird                10        20 Student          Durham   Henry_10   
    ## 10 Imelda McCarron             9        33 Countryside rec… County … Imelda_9   
    ## # ℹ 16 more rows
…
